<?xml version="1.0"?>

<robot name="quadrotor" xmlns:xacro="http://www.ros.org/wiki/xacro">
    <xacro:include filename="$(find hector_quadrotor_description)/urdf/quadrotor.urdf.xacro" />
    <xacro:include filename="$(find hector_quadrotor_description)/urdf/quadrotor_plugins.gazebo.xacro" />
</robot>
